Midterms
…
ModernDive readings and learning checks: In particular the more theoretical ideas of “tidy” data.

Problem sets 04 and 05

Practice midterm notes

library(fivethirtyeight)
library(nycflights13)
library(babynames)

Question 1

babynames

## # A tibble: 1,924,665 × 5
##     year sex   name          n   prop
##    <dbl> <chr> <chr>     <int>  <dbl>
##  1  1880 F     Mary       7065 0.0724
##  2  1880 F     Anna       2604 0.0267
##  3  1880 F     Emma       2003 0.0205
##  4  1880 F     Elizabeth  1939 0.0199
##  5  1880 F     Minnie     1746 0.0179
##  6  1880 F     Margaret   1578 0.0162
##  7  1880 F     Ida        1472 0.0151
##  8  1880 F     Alice      1414 0.0145
##  9  1880 F     Bertha     1320 0.0135
## 10  1880 F     Sarah      1288 0.0132
## # … with 1,924,655 more rows

Question 2

nrow(weather)

## [1] 26115

Question 4

Based on Dear Mona Followup: Where Do People Drink The Most Beer, Wine And Spirits?.

# drinks is not "tidy"
drinks

## # A tibble: 193 × 5
##    country           beer_servings spirit_servings wine_servings total_litres_of…
##    <chr>                     <int>           <int>         <int>            <dbl>
##  1 Afghanistan                   0               0             0              0  
##  2 Albania                      89             132            54              4.9
##  3 Algeria                      25               0            14              0.7
##  4 Andorra                     245             138           312             12.4
##  5 Angola                      217              57            45              5.9
##  6 Antigua & Barbuda           102             128            45              4.9
##  7 Argentina                   193              25           221              8.3
##  8 Armenia                      21             179            11              3.8
##  9 Australia                   261              72           212             10.4
## 10 Austria                     279              75           191              9.7
## # … with 183 more rows

drinks_tidy <- drinks %>%
  # Convert to "tidy"
  pivot_longer(cols = ends_with("servings"), names_to = "type", values_to = "servings") %>%
  # Do text manipulation: only characters 1 thru 10. this trims off "_servings"
  mutate(type = str_sub(type, start=1, end=-10)) %>%
  arrange(country, type)
drinks_tidy

## # A tibble: 579 × 4
##    country     total_litres_of_pure_alcohol type   servings
##    <chr>                              <dbl> <chr>     <int>
##  1 Afghanistan                          0   beer          0
##  2 Afghanistan                          0   spirit        0
##  3 Afghanistan                          0   wine          0
##  4 Albania                              4.9 beer         89
##  5 Albania                              4.9 spirit      132
##  6 Albania                              4.9 wine         54
##  7 Algeria                              0.7 beer         25
##  8 Algeria                              0.7 spirit        0
##  9 Algeria                              0.7 wine         14
## 10 Andorra                             12.4 beer        245
## # … with 569 more rows
…
by sex and class and age

to answer the question if the “women and children”-first policy of the White Star Line Company (the company that ran the Titanic) held true or not.

Note: you don’t need to calculate the output table, just write the pseudocode that would produce it where the more concise the pseudocode the better. Here is what the Titanic data looks like:\

data(Titanic)
# Convert to tibble i.e. data frame
Titanic <- Titanic %>% 
  as_tibble()

Titanic

## # A tibble: 32 × 5
##    Class Sex    Age   Survived     n
##    <chr> <chr>  <chr> <chr>    <dbl>
##  1 1st   Male   Child No           0
##  2 2nd   Male   Child No           0
##  3 3rd   Male   Child No          35
##  4 Crew  Male   Child No           0
##  5 1st   Female Child No           0
##  6 2nd   Female Child No           0
##  7 3rd   Female Child No          17
##  8 Crew  Female Child No           0
##  9 1st   Male   Adult No         118
## 10 2nd   Male   Adult No         154
## # … with 22 more rows
…
